<?xml version="1.0" standalone="no"?>
<!DOCTYPE svg PUBLIC "-//W3C//DTD SVG 20010904//EN"
 "http://www.w3.org/TR/2001/REC-SVG-20010904/DTD/svg10.dtd">
<svg version="1.0" xmlns="http://www.w3.org/2000/svg"
 width="339.000000pt" height="81.000000pt" viewBox="0 0 339.000000 81.000000"
 preserveAspectRatio="xMidYMid meet">

<g transform="translate(0.000000,81.000000) scale(0.100000,-0.100000)"
fill="#000000" stroke="none">
<path d="M131 704 c-33 -28 -47 -74 -36 -124 4 -18 31 -58 64 -93 73 -78 85
-100 71 -127 -15 -28 -48 -25 -62 5 -8 18 -19 25 -39 25 -33 0 -43 -13 -35
-44 23 -91 161 -104 205 -19 28 55 -10 154 -79 203 -35 25 -62 78 -50 101 15
27 39 30 57 9 30 -35 83 -24 75 16 -13 68 -113 97 -171 48z"/>
<path d="M403 723 c-10 -3 -13 -59 -13 -228 0 -218 0 -223 21 -228 45 -12 49
-2 49 116 0 61 3 107 7 103 4 -4 24 -53 44 -109 36 -101 36 -102 69 -102 32 0
33 0 69 104 l36 103 3 -105 c2 -97 4 -105 24 -110 12 -3 30 -2 40 4 17 9 18
26 18 223 0 230 -3 241 -52 234 -19 -3 -30 -22 -70 -133 -76 -206 -62 -202
-125 -35 -30 80 -60 151 -65 158 -11 12 -33 15 -55 5z"/>
<path d="M923 718 c-10 -13 -74 -384 -73 -426 0 -20 4 -23 33 -20 29 3 33 7
41 46 9 40 10 42 47 42 37 0 38 -1 46 -42 8 -39 12 -43 41 -46 29 -3 32 -1 32
25 1 52 -63 418 -74 425 -18 12 -83 9 -93 -4z m70 -280 c-2 -5 -13 -8 -25 -8
-19 0 -20 4 -14 62 4 34 10 67 14 73 7 11 31 -115 25 -127z"/>
<path d="M1188 724 c-5 -4 -8 -107 -8 -230 0 -237 1 -240 49 -227 19 5 21 12
21 95 0 79 2 89 17 86 11 -2 29 -34 51 -88 37 -91 44 -100 74 -92 32 8 32 28
-2 111 l-31 79 25 25 c49 49 44 167 -10 218 -21 20 -37 24 -102 27 -42 2 -80
0 -84 -4z m126 -74 c23 -8 26 -15 26 -58 0 -57 -12 -72 -57 -72 l-33 0 0 70
c0 77 6 82 64 60z"/>
<path d="M1494 716 c-9 -23 0 -51 16 -53 8 -1 32 -4 53 -8 l37 -6 0 -188 c0
-171 2 -189 18 -193 9 -2 25 -2 35 0 15 3 17 21 17 191 l0 189 31 6 c17 3 42
6 56 6 21 0 24 4 21 33 l-3 32 -138 3 c-113 2 -138 0 -143 -12z"/>
<path d="M1891 717 c-32 -19 -50 -54 -51 -100 0 -50 21 -89 87 -158 58 -61 66
-91 30 -113 -15 -9 -22 -6 -41 17 -14 17 -31 27 -49 27 -23 0 -27 -4 -27 -31
0 -48 47 -89 102 -89 53 0 85 21 104 67 23 54 4 103 -72 184 -68 72 -81 109
-45 128 14 8 25 6 45 -10 56 -44 100 2 54 56 -28 32 -99 44 -137 22z"/>
<path d="M2117 724 c-4 -4 -7 -20 -7 -36 0 -25 4 -28 33 -28 17 0 42 -3 55 -6
22 -6 22 -8 22 -194 0 -170 2 -188 18 -192 9 -2 25 -2 35 0 15 3 17 21 17 192
0 186 0 188 23 194 12 3 37 6 55 6 31 0 33 2 30 33 l-3 32 -136 3 c-74 1 -138
-1 -142 -4z"/>
<path d="M2508 714 c-15 -8 -32 -23 -38 -34 -6 -10 -10 -89 -10 -180 0 -209
10 -229 112 -230 51 0 59 3 82 31 26 30 26 32 26 197 0 143 -3 170 -18 188
-36 45 -102 57 -154 28z m91 -78 c8 -9 11 -57 9 -146 -3 -114 -6 -134 -20
-144 -13 -8 -23 -8 -35 0 -15 10 -18 30 -21 144 -3 137 3 160 38 160 10 0 23
-6 29 -14z"/>
<path d="M2771 712 c-7 -13 -11 -97 -11 -226 0 -189 1 -206 18 -215 10 -6 28
-7 40 -4 21 5 22 12 22 95 0 117 18 117 66 -1 36 -91 45 -101 76 -93 32 8 32
28 -2 111 l-33 78 21 21 c49 49 50 161 1 216 -25 29 -32 31 -107 34 -72 4 -81
2 -91 -16z m133 -62 c23 -8 26 -15 26 -59 0 -55 -15 -71 -64 -71 -25 0 -26 2
-26 70 0 77 6 82 64 60z"/>
<path d="M3110 500 l0 -231 88 3 87 3 0 30 c0 29 -2 30 -52 33 l-53 3 0 60 0
59 41 0 c39 0 40 1 37 33 -3 29 -6 32 -40 35 l-38 3 0 60 0 59 50 0 c45 0 50
3 56 25 12 49 2 55 -91 55 l-85 0 0 -230z"/>
<path d="M371 118 c-1 -46 0 -48 27 -47 23 2 24 2 5 6 -27 5 -31 30 -5 36 15
4 15 5 0 6 -9 0 -19 11 -21 24 -2 12 -5 1 -6 -25z"/>
<path d="M552 115 c1 -45 2 -46 5 -11 l4 39 24 -39 24 -39 -1 50 c-1 32 -3 39
-5 21 l-5 -29 -23 29 -24 29 1 -50z"/>
<path d="M762 122 c-2 -31 -5 -41 -14 -36 -10 5 -10 4 -1 -6 19 -20 25 -7 20
41 l-4 44 -1 -43z"/>
<path d="M917 153 c-13 -12 -7 -60 8 -73 22 -19 64 -4 71 25 6 26 -9 55 -29
55 -6 0 -3 -6 7 -13 33 -24 1 -79 -38 -64 -21 8 -21 53 2 66 14 9 15 10 1 11
-9 0 -19 -3 -22 -7z"/>
<path d="M1125 145 c4 -11 11 -33 15 -50 4 -16 8 -22 9 -12 1 10 8 32 16 50
14 29 14 30 0 13 -15 -20 -15 -20 -31 0 -15 19 -16 19 -9 -1z"/>
<path d="M1465 145 c4 -11 11 -33 15 -50 4 -16 8 -22 9 -12 1 10 8 32 16 50
15 30 15 30 0 12 l-16 -20 -16 20 -16 20 8 -20z"/>
<path d="M1644 135 c-12 -49 17 -77 62 -57 36 17 28 82 -10 82 -5 0 -2 -6 8
-13 21 -15 18 -45 -6 -60 -12 -8 -21 -7 -32 2 -21 18 -20 48 2 60 16 10 16 10
0 11 -11 0 -20 -10 -24 -25z"/>
<path d="M1862 137 c-3 -38 14 -67 38 -67 24 0 42 33 37 68 -4 25 -4 25 -6 -4
-3 -66 -56 -67 -64 -1 -4 31 -4 31 -5 4z"/>
<path d="M2071 113 c1 -37 3 -42 8 -23 l7 25 13 -23 c7 -13 15 -21 18 -18 3 3
0 12 -6 20 -8 10 -9 16 -1 21 12 8 14 45 1 45 -5 0 -7 -9 -4 -20 4 -14 0 -20
-12 -20 -12 0 -16 6 -12 20 3 11 1 20 -4 20 -5 0 -9 -21 -8 -47z"/>
<path d="M2421 113 c1 -53 6 -49 11 10 2 20 0 37 -4 37 -4 0 -8 -21 -7 -47z"/>
<path d="M2732 113 c1 -41 2 -43 5 -13 l5 35 18 -35 18 -35 14 29 13 30 6 -30
c6 -24 7 -21 8 19 0 26 -1 47 -5 47 -3 0 -12 -17 -21 -37 l-15 -38 -19 38
c-11 20 -22 37 -24 37 -3 0 -4 -21 -3 -47z"/>
<path d="M2961 118 c-1 -46 0 -48 27 -47 23 2 24 2 5 6 -27 5 -31 30 -5 36 15
4 15 5 0 6 -9 0 -19 11 -21 24 -2 12 -5 1 -6 -25z"/>
</g>
</svg>
